{
	"id": "user123",
	"firstname": "John",
	"lastname": "Doe",
	"email": "johndoe@mail.com",
	"password": "user123",
	"isAdmin": false,
	"mobileNumber": "09985537289",
	"dateTimeRegistered": "2022-08-1811PM"
},
{
	"id": "user456",
	"firstname": "Jane",
	"lastname": "Doe",
	"email": "janedoe@mail.com",
	"password": "user123",
	"isAdmin": false,
	"mobileNumber": "09985537289",
	"dateTimeRegistered": "2022-08-1815PM"
}